…
# For each account you follow, retrieve who they follow.
follows_of_follows <- my_follows |>
  purrr::map_dfr(~{
    get_followers(actor = .x, limit = 100) |>
      mutate(from = .x)
  })

# Now we can check which accounts are popular among the people you already follow
follows_of_follows |>
  dplyr::filter(!actor_handle %in% my_follows) |> # exclude accounts you already follow
  dplyr::count(actor_name, actor_handle, sort = TRUE)
#> # A tibble: 706 × 3
#>    actor_name                   actor_handle     n
#>    <chr>                        <chr>        <int>
#>  1 Johannes B. Gruber           jbgruber.bs…    10
#>  2 Adrian Meier                 adrianmeier…     3
#>  3 Andreas Rechkemmer           andreasrech…     3
#>  4 Daniel Vogler                dnvglr.bsky…     3
#>  5 Yotam Ophir, Ph.D.           ophiryotam.…     3
#>  6 (A)va (F)rancesca Battocchio afbat.bsky.…     2
#>  7 Adam Bouska                  adambouska.…     2
#>  8 Alesha Lewis                 ael1999.bsk…     2
#>  9 Alessandro Nai               alessandron…     2
#> 10 Anna Schorn                  annaschorn.…     2
#> # ℹ 696 more rows
```
…
