Networks • atr
…
my_follows <- get_follows(actor = "jbgruber.bsky.social",
                              limit = 10)$handle # limit only for demonstration

# For each account you follow, retrieve who they follow.
follows_of_follows <- my_follows |>
  purrr::map_dfr(~{
    get_followers(actor = .x, limit = 100) |>
      mutate(from = .x)
  })

# Now we can check which accounts are popular among the people you already follow
follows_of_follows |>
  dplyr::filter(!handle %in% my_follows) |> # exclude accounts you already follow
  dplyr::count(display_name, handle, sort = TRUE)
#> # A tibble: 631 × 3
#>    display_name          handle                          n
#>    <chr>                 <chr>                       <int>
#>  1 "Amar jeet"           amarjeat.bsky.social           15
#>  2 "Johannes B. Gruber"  jbgruber.bsky.social            8
#>  3 "Johannes Breuer"     jobreu.bsky.social              5
#>  4 "Anna Staender"       annastaender.bsky.social        4
#>  5 "Daniel Thiele "      thieled.bsky.social             4
#>  6 "Felicia Loecherbach" feloe.bsky.social               4
#>  7 "Jakob Ohme"          dscheykopp.bsky.social          4
#>  8 "Lena Frischlich "    lenafrescamente.bsky.social     4
#>  9 "Niels Mede"          nielsmede.bsky.social           4
#> 10 "Ross Dahlke"         rossdahlke.bsky.social          4
#> # ℹ 621 more rows
…
