Basic Usage • atr
…
my_follows <- get_follows(actor = "jbgruber.bsky.social",
                              limit = 10)$handle # limit only for demonstration

# For each account you follow, retrieve who they follow.
follows_of_follows <- my_follows |>
  purrr::map_dfr(~{
    get_followers(actor = .x, limit = 100) |>
      mutate(from = .x)
  })

# Now we can check which accounts are popular among the people you already follow
follows_of_follows |>
  dplyr::filter(!handle %in% my_follows) |> # exclude accounts you already follow
  dplyr::count(display_name, handle, sort = TRUE)
#> # A tibble: 721 × 3
#>    display_name               handle                          n
#>    <chr>                      <chr>                       <int>
#>  1 "Elizabeth (Bit) Meehan"   elizabethbitmeehan.com         12
#>  2 "Johannes B. Gruber"       jbgruber.bsky.social            9
#>  3 "Andy"                     andy2chris.bsky.social          6
#>  4 "Jen Mercieca "            jenmercieca.bsky.social         6
#>  5 "Shaily Patel"             vox-magica.bsky.social          6
#>  6 "Tommy"                    tommyg.bsky.social              6
#>  7  <NA>                      rps1227.bsky.social             6
#>  8 "Fulltime HTML Programmer" programmerhumor.bsky.social     5
#>  9 "OThingstodo"              othingstodo.bsky.social         5
#> 10 "Michael Friendly"         datavisfriendly.bsky.social     4
#> # ℹ 711 more rows
…
