Networks • atrrr
…
my_follows <- get_follows(actor = "jbgruber.bsky.social",
                              limit = 10)$actor_handle # limit only for demonstration

# For each account you follow, retrieve who they follow.
follows_of_follows <- my_follows |>
  purrr::map_dfr(~{
    get_followers(actor = .x, limit = 100) |>
      mutate(from = .x)
  })

# Now we can check which accounts are popular among the people you already follow
follows_of_follows |>
  dplyr::filter(!actor_handle %in% my_follows) |> # exclude accounts you already follow
  dplyr::count(actor_name, actor_handle, sort = TRUE)
#> # A tibble: 704 × 3
#>    actor_name                actor_handle         n
#>    <chr>                     <chr>            <int>
#>  1 Johannes B. Gruber        jbgruber.bsky.s…     9
#>  2 Center for Ballot Freedom fusionvoting.bs…     4
#>  3 David Karpa               dkarpa.bsky.soc…     3
#>  4 Jacob Ware                jacobware.bsky.…     3
#>  5 Jens Rydgren              jensrydgren.bsk…     3
#>  6 edminkardes               gorkem.me            3
#>  7 Adrian Florea             aflorea.bsky.so…     2
#>  8 Brian O'Meara             omearabrian.bsk…     2
#>  9 Darren Dahly              statsepi.bsky.s…     2
#> 10 Erik Angner               erikangner.com       2
#> # ℹ 694 more rows
…
